<?xml version="1.0" standalone="no"?>
<!DOCTYPE svg PUBLIC "-//W3C//DTD SVG 1.1//EN" "http://www.w3.org/Graphics/SVG/1.1/DTD/svg11.dtd">
<svg xmlns="http://www.w3.org/2000/svg">
<metadata>Copyright (C) 2014 by original authors @ fontello.com</metadata>
<defs>
<font id="fontello" horiz-adv-x="1000" >
<font-face font-family="fontello" font-weight="400" font-stretch="normal" units-per-em="1000" ascent="850" descent="-150" />
<missing-glyph horiz-adv-x="1000" />
<glyph glyph-name="ok-circled" unicode="&#xe800;" d="m0 350q0 117 58 215t155 156 216 58 215-58 156-156 57-215-57-215-156-156-215-58-216 58-155 156-58 215z m141-11q0-15 10-25l202-202q10-10 25-10 15 0 25 10l303 303q11 10 11 25 0 16-11 26l-50 50q-11 11-25 11t-26-11l-227-227-126 126q-11 11-25 11t-26-11l-50-50q-10-10-10-26z" horiz-adv-x="857.1" />
<glyph glyph-name="ok" unicode="&#xe801;" d="m68 332q0 22 15 38l76 76q16 16 38 16t38-16l164-165 366 367q16 16 38 16t38-16l76-76q15-16 15-38t-15-38l-404-404-76-76q-16-15-38-15t-38 15l-76 76-202 202q-15 16-15 38z" horiz-adv-x="1000" />
<glyph glyph-name="cancel" unicode="&#xe802;" d="m61 112q0 23 16 38l164 164-164 164q-16 16-16 38t16 38l76 76q16 16 38 16t38-16l164-164 164 164q16 16 38 16t38-16l76-76q15-15 15-38t-15-38l-164-164 164-164q15-15 15-38t-15-38l-76-76q-16-15-38-15t-38 15l-164 164-164-164q-16-15-38-15t-38 15l-76 76q-16 16-16 38z" horiz-adv-x="785.7" />
<glyph glyph-name="plus" unicode="&#xe803;" d="m0 332v107q0 23 16 38t38 16h232v232q0 22 15 38t38 16h107q23 0 38-16t16-38v-232h232q22 0 38-16t16-38v-107q0-22-16-38t-38-16h-232v-232q0-22-16-38t-38-15h-107q-22 0-38 15t-15 38v232h-232q-23 0-38 16t-16 38z" horiz-adv-x="785.7" />
<glyph glyph-name="eye" unicode="&#xe804;" d="m0 314q0 19 11 39 78 128 210 205t279 78 279-78 210-205q11-20 11-39t-11-38q-78-129-210-206t-279-77-279 77-210 206q-11 19-11 38z m71 0q75-114 187-182t242-68 242 68 187 182q-85 132-213 197 34-58 34-125 0-104-73-177t-177-73-177 73-73 177q0 67 34 125-128-65-213-197z m259 72q0-11 8-19t19-8 19 8 8 19q0 48 34 82t82 34q11 0 19 8t8 19-8 19-19 7q-70 0-120-50t-50-119z" horiz-adv-x="1000" />
<glyph glyph-name="doc" unicode="&#xe805;" d="m0-96v892q0 23 16 38t38 16h500q22 0 49-11t42-27l174-174q16-16 27-42t11-50v-642q0-23-15-38t-38-16h-750q-23 0-38 16t-16 38z m71 17h715v572h-232q-23 0-38 15t-16 38v233h-429v-858z m500 643h210q-5 16-12 23l-175 175q-6 7-23 12v-210z" horiz-adv-x="857.1" />
<glyph glyph-name="docs" unicode="&#xe806;" d="m0 118v375q0 22 11 49t27 42l228 228q15 16 42 27t49 11h232q23 0 38-16t16-38v-183q38 23 71 23h232q23 0 38-16t16-38v-678q0-23-16-38t-38-16h-535q-23 0-38 16t-16 38v160h-303q-23 0-38 16t-16 38z m71 18h286v143q0 22 11 49t27 42l176 176v233h-214v-233q0-22-15-38t-38-15h-233v-357z m48 428h167v167z m310-643h500v643h-215v-232q0-22-15-38t-38-15h-232v-358z m47 429h167v167z" horiz-adv-x="1000" />
<glyph glyph-name="doc-text" unicode="&#xe807;" d="m0-96v892q0 23 16 38t38 16h500q22 0 49-11t42-27l174-174q16-16 27-42t11-50v-642q0-23-15-38t-38-16h-750q-23 0-38 16t-16 38z m71 17h715v572h-232q-23 0-38 15t-16 38v233h-429v-858z m143 161v36q0 8 5 13t13 5h393q8 0 13-5t5-13v-36q0-8-5-13t-13-5h-393q-8 0-13 5t-5 13z m0 143v36q0 8 5 13t13 5h393q8 0 13-5t5-13v-36q0-8-5-13t-13-5h-393q-8 0-13 5t-5 13z m0 143v36q0 7 5 12t13 5h393q8 0 13-5t5-12v-36q0-8-5-13t-13-5h-393q-8 0-13 5t-5 13z m357 196h210q-5 16-12 23l-175 175q-6 7-23 12v-210z" horiz-adv-x="857.1" />
<glyph glyph-name="wrench" unicode="&#xe808;" d="m12-7q0 29 21 51l380 380q22-55 64-97t97-64l-381-381q-21-20-50-20-29 0-51 20l-59 61q-21 20-21 50z m131 36q0-15 10-26t26-10 25 10 10 26-10 25-25 10-26-10-10-25z m286 500q0 103 73 176t177 74q32 0 67-10t60-26q9-6 9-15t-9-16l-163-94v-125l108-60q2 2 44 27t75 45 40 20q8 0 13-5t4-14q0-22-12-60-27-74-92-121t-144-47q-104 0-177 74t-73 176z" horiz-adv-x="928.6" />
<glyph glyph-name="calendar" unicode="&#xe809;" d="m0-79v715q0 29 21 50t50 21h72v54q0 36 26 63t63 26h36q37 0 63-26t26-63v-54h214v54q0 36 27 63t63 26h35q37 0 63-26t27-63v-54h71q29 0 50-21t22-50v-715q0-29-22-50t-50-21h-786q-29 0-50 21t-21 50z m71 0h161v161h-161v-161z m0 197h161v178h-161v-178z m0 214h161v161h-161v-161z m143 268q0-7 6-13t12-5h36q7 0 12 5t6 13v161q0 7-6 12t-12 6h-36q-7 0-12-6t-6-12v-161z m54-679h178v161h-178v-161z m0 197h178v178h-178v-178z m0 214h178v161h-178v-161z m214-411h179v161h-179v-161z m0 197h179v178h-179v-178z m0 214h179v161h-179v-161z m161 268q0-7 5-13t13-5h35q8 0 13 5t5 13v161q0 7-5 12t-13 6h-35q-8 0-13-6t-5-12v-161z m53-679h161v161h-161v-161z m0 197h161v178h-161v-178z m0 214h161v161h-161v-161z" horiz-adv-x="928.6" />
<glyph glyph-name="resize-full-alt" unicode="&#xe80a;" d="m0-43v250q0 24 22 33 22 10 39-8l80-80 198 198-198 198-80-80q-11-11-25-11-7 0-14 3-22 9-22 33v250q0 14 11 25t25 11h250q23 0 33-23 9-22-8-38l-80-81 198-198 198 198-81 81q-17 16-7 38 9 23 32 23h250q15 0 26-11t10-25v-250q0-24-22-33-7-3-14-3-14 0-25 11l-80 80-198-198 198-198 80 80q16 17 39 8 22-9 22-33v-250q0-14-10-25t-26-11h-250q-23 0-32 23-10 21 7 38l81 81-198 198-198-198 80-81q17-17 8-38-10-23-33-23h-250q-15 0-25 11t-11 25z" horiz-adv-x="857.1" />
<glyph glyph-name="block" unicode="&#xe80b;" d="m0 352q0 87 34 167t91 137 137 91 167 34 166-34 137-91 91-137 34-167-34-168-91-137-137-92-166-34-167 34-137 92-91 137-34 168z m125 0q0-91 50-167l421 421q-75 50-167 50-83 0-153-40t-110-112-41-152z m138-256q76-50 166-50 62 0 118 25t96 65 65 97 24 119q0 90-48 164z" horiz-adv-x="857.1" />
<glyph glyph-name="angle-left" unicode="&#xe80c;" d="m25 314q0 8 6 13l260 260q5 6 13 6t12-6l28-28q6-5 6-13t-6-12l-219-220 219-219q6-6 6-13t-6-13l-28-28q-5-5-12-5t-13 5l-260 260q-6 6-6 13z" horiz-adv-x="357.1" />
<glyph glyph-name="angle-right" unicode="&#xe80d;" d="m7 82q0 7 6 13l219 219-219 220q-6 5-6 12t6 13l28 28q5 6 13 6t12-6l260-260q6-5 6-13t-6-13l-260-260q-5-5-12-5t-13 5l-28 28q-6 6-6 13z" horiz-adv-x="357.1" />
<glyph glyph-name="angle-up" unicode="&#xe80e;" d="m43 189q0 8 6 13l260 260q5 6 12 6t13-6l260-260q6-5 6-13t-6-13l-28-27q-5-6-12-6t-13 6l-220 219-219-219q-5-6-13-6t-13 6l-27 27q-6 6-6 13z" horiz-adv-x="642.9" />
<glyph glyph-name="angle-down" unicode="&#xe80f;" d="m43 439q0 8 6 13l27 28q6 6 13 6t13-6l219-219 220 219q5 6 13 6t12-6l28-28q6-5 6-13t-6-13l-260-260q-5-5-13-5t-12 5l-260 260q-6 6-6 13z" horiz-adv-x="642.9" />
<glyph glyph-name="comment" unicode="&#xe810;" d="m0 350q0 97 67 179t182 130 251 48 251-48 182-130 67-179-67-179-182-130-251-48q-39 0-81 4-110-97-257-135-27-8-63-12h-3q-8 0-15 6t-9 15v1q-2 2 0 6t1 6 2 5l4 5t4 5 4 5q4 5 17 19t20 22 17 22 18 28 15 33 15 42q-88 50-138 123t-51 157z m71 0q0-62 40-119t113-98l48-28-15-54q-13-50-39-96 85 36 154 96l24 21 31-3q39-5 73-5 114 0 213 39t157 105 59 142-59 142-157 105-213 39-213-39-157-105-59-142z" horiz-adv-x="1000" />
<glyph glyph-name="upload" unicode="&#xe811;" d="m0-25v179q0 22 16 38t38 15h238q12-31 39-51t62-20h143q34 0 61 20t40 51h238q22 0 38-15t16-38v-179q0-22-16-38t-38-16h-821q-23 0-38 16t-16 38z m181 540q-9 22 8 39l250 250q10 10 25 10t25-10l250-250q18-17 8-39-9-22-33-22h-143v-250q0-15-10-25t-25-11h-143q-15 0-25 11t-11 25v250h-143q-23 0-33 22z m462-486q0-15 10-26t26-10 25 10 10 26-10 25-25 10-26-10-10-25z m143 0q0-15 10-26t25-10 26 10 10 26-10 25-26 10-25-10-10-25z" horiz-adv-x="928.6" />
<glyph glyph-name="inbox" unicode="&#xe812;" d="m0 29v269q0 34 14 68l133 308q5 14 20 24t29 9h465q14 0 29-9t20-24l133-308q14-34 14-68v-269q0-15-10-26t-26-10h-785q-15 0-25 10t-11 26z m110 285h176l53-107h179l53 107h176q0 2-1 5t-2 4l-118 277h-395l-118-277q-1-1-2-4t-1-5z" horiz-adv-x="857.1" />
<glyph glyph-name="fork" unicode="&#xe813;" d="m0 29q0 29 15 53t39 39v458q-25 14-39 39t-15 53q0 45 31 76t76 32 76-32 31-76q0-29-14-53t-39-39v-278q30 15 86 32 30 10 49 17t39 17 33 22 22 29 16 38 5 51q-25 14-39 39t-15 54q0 45 31 76t76 31 76-31 31-76q0-29-14-54t-39-39q-1-160-126-231-38-21-114-45-71-22-94-39t-23-56v-15q24-14 39-39t14-53q0-45-31-76t-76-32-76 32-31 76z m54 0q0-23 15-38t38-16 38 16 16 38-16 38-38 15-38-15-15-38z m0 642q0-22 15-38t38-15 38 15 16 38-16 38-38 16-38-16-15-38z m357-71q0-22 15-38t38-16 38 16 16 38-16 38-38 16-38-16-15-38z" horiz-adv-x="571.4" />
<glyph glyph-name="check" unicode="&#xe814;" d="m0 154v464q0 66 47 113t114 48h464q35 0 65-14 9-4 10-13 2-10-5-16l-27-28q-6-5-13-5-2 0-5 1-13 3-25 3h-464q-37 0-63-26t-27-63v-464q0-37 27-63t63-27h464q37 0 63 27t26 63v141q0 8 5 13l36 35q6 6 13 6 3 0 7-2 11-4 11-16v-177q0-67-47-114t-114-47h-464q-67 0-114 47t-47 114z m143 267q0 19 14 32l61 62q14 13 32 13t32-13l147-147 361 361q13 13 31 13t32-13l62-61q13-14 13-32t-13-32l-455-454q-13-14-31-14t-32 14l-240 240q-14 13-14 31z" horiz-adv-x="928.6" />
<glyph glyph-name="filter" unicode="&#xe815;" d="m3 685q9 22 33 22h714q23 0 33-22 9-23-8-39l-275-275v-414q0-23-22-33-7-3-14-3-15 0-25 11l-143 143q-10 10-10 25v271l-275 275q-18 16-8 39z" horiz-adv-x="785.7" />
<glyph glyph-name="hammer" unicode="&#xe816;" d="m22 404q0 7 3 14t5 12 9 13 9 10 11 11 10 9q17 15 38 15 6 0 10 0t9-4 8-3 8-5 6-6 7-7 7-7q-8 8-8 19t8 19l194 194q8 8 19 8t19-8q-1 1-7 7t-7 7-6 7-5 7-3 8-4 9 0 10q0 21 15 38 2 1 9 10t11 11 10 9 13 9 12 5 14 3q23 0 38-16l228-228q16-15 16-38 0-7-3-14t-5-12-9-13-9-10-11-11-10-9q-17-15-38-15-6 0-10 0t-9 4-8 3-7 5-7 6-7 7-7 7q8-8 8-19t-8-19l-70-70 143-143q24 24 53 24 29 0 51-21l203-202q20-22 20-51 0-30-20-50l-60-61q-22-20-51-20-29 0-50 20l-203 204q-21 20-21 50 0 29 24 53l-143 143-70-70q-8-8-19-8t-19 8q1-1 7-7t7-7 6-7 5-7 4-8 3-9 0-10q0-21-15-38-2-1-9-10t-11-11-10-9-13-9-12-5-14-3q-23 0-38 16l-228 228q-16 15-16 38z" horiz-adv-x="1000" />
<glyph glyph-name="attach" unicode="&#xe817;" d="m244-140q-102 0-170 72-72 70-74 166t84 190l496 496q80 80 174 54 44-12 79-47t47-79q26-96-54-176l-474-474q-40-40-88-46-48-4-80 28-30 24-27 74t47 92l332 334q24 26 50 0t0-50l-332-332q-44-44-20-70 12-8 24-6 24 4 46 26l474 474q50 50 34 108-16 60-76 76-54 14-108-36l-494-494q-66-76-64-143t52-117q50-48 117-50t141 62l496 494q24 24 50 0 26-22 0-48l-496-496q-82-82-186-82z" horiz-adv-x="939" />
<glyph glyph-name="plus-1" unicode="&#xe818;" d="m550 400q30 0 30-50t-30-50l-210 0 0-210q0-30-50-30t-50 30l0 210-210 0q-30 0-30 50t30 50l210 0 0 210q0 30 50 30t50-30l0-210 210 0z" horiz-adv-x="580" />
<glyph glyph-name="plus-circled" unicode="&#xe819;" d="m420 770q174 0 297-123t123-297-123-297-297-123-297 123-123 297 123 297 297 123z m52-470l200 0 0 102-200 0 0 202-102 0 0-202-202 0 0-102 202 0 0-202 102 0 0 202z" horiz-adv-x="840" />
<glyph glyph-name="minus-circled" unicode="&#xe81a;" d="m420 770q174 0 297-123t123-297-123-297-297-123-297 123-123 297 123 297 297 123z m252-368l-504 0 0-102 504 0 0 102z" horiz-adv-x="840" />
<glyph glyph-name="help-circled" unicode="&#xe81b;" d="m454 810q190 2 326-130t140-322q2-190-131-327t-323-141q-190-2-327 131t-139 323q-4 190 130 327t324 139z m-2-740q30 0 49 19t19 47q2 30-17 49t-49 19l-2 0q-28 0-47-18t-21-46q0-30 19-49t47-21l2 0z m166 328q26 34 26 78 0 78-54 116-52 38-134 38-64 0-104-26-68-42-72-146l0-4 110 0 0 4q0 26 16 54 16 24 54 24 40 0 52-20 16-20 16-44 0-18-16-40-8-12-20-20l-6-4q-6-4-16-11t-20-15-21-17-17-17q-14-20-18-78l0-8 108 0 0 4q0 12 4 28 6 20 28 36l28 18q46 34 56 50z" horiz-adv-x="920" />
<glyph glyph-name="reply" unicode="&#xe81c;" d="m900 10q-86 152-208 197t-330 45l0-218-362 334 362 322 0-192q90 0 168-27t131-70 96-95 69-104 44-95 24-69z" horiz-adv-x="900" />
<glyph glyph-name="export" unicode="&#xe81d;" d="m750 60l0 56 100 82 0-188q0-20-15-35t-35-15l-750 0q-20 0-35 15t-15 35l0 550q0 22 14 36t36 14l288 0q-32-24-59-49t-39-39l-10-12-130 0 0-450 650 0z m-82 348q-166 0-242-41t-160-181q0 8 1 22t9 56 22 79 44 83 70 79 107 56 149 23l0 156 332-250-332-260 0 178z" horiz-adv-x="1000" />
<glyph glyph-name="pencil" unicode="&#xe81e;" d="m718 680q32-32 47-64t15-48l0-16-252-252-290-288-238-52 50 240 290 288 252 252q54 12 126-60z m-494-640l24 24q-2 44-52 94-22 22-45 35t-35 13l-14 2-22-24-18-80q28-16 46-34 24-24 36-48z" horiz-adv-x="780" />
<glyph glyph-name="block-1" unicode="&#xe81f;" d="m480 830q200 0 340-140t140-340q0-198-140-339t-340-141q-198 0-339 141t-141 339q0 200 141 340t339 140z m258-220z m-622-260q0-132 82-230l514 514q-100 82-232 82-152 0-258-107t-106-259z m106-258z m258-106q152 0 259 107t107 257q0 130-82 232l-514-514q98-82 230-82z" horiz-adv-x="960" />
<glyph glyph-name="ccw" unicode="&#xe820;" d="m532 736q170 0 289-120t119-290-119-290-289-120q-142 0-252 88l70 74q84-60 182-60 126 0 216 90t90 218-90 218-216 90q-124 0-214-87t-92-211l142 0-184-204-184 204 124 0q2 166 122 283t286 117z" horiz-adv-x="940" />
<glyph glyph-name="floppy" unicode="&#xe821;" d="m658 750l142-156 0-544q0-40-29-70t-71-30l-600 0q-40 0-70 30t-30 70l0 600q0 42 30 71t70 29l558 0z m-58-300l0 250-400 0 0-250q0-20 15-35t35-15l300 0q20 0 35 15t15 35z m-50 200l0-200-100 0 0 200 100 0z" horiz-adv-x="800" />
<glyph glyph-name="dot-3" unicode="&#xe822;" d="m110 460q46 0 78-32t32-78q0-44-32-77t-78-33-78 33-32 77q0 46 32 78t78 32z m350 0q46 0 78-32t32-78q0-44-33-77t-77-33-77 33-33 77q0 46 32 78t78 32z m350 0q46 0 78-32t32-78q0-44-32-77t-78-33-78 33-32 77q0 46 32 78t78 32z" horiz-adv-x="920" />
<glyph glyph-name="pause" unicode="&#xe823;" d="m440 700q90 0 90-64l0-570q0-66-90-66t-90 66l0 570q0 64 90 64z m-350 0q90 0 90-64l0-570q0-66-90-66t-90 66l0 570q0 64 90 64z" horiz-adv-x="530" />
<glyph glyph-name="doc-add" unicode="&#xe824;" d="m573 350q21 0 36-15t16-37-16-36-36-15l-104 0 0-105q0-22-16-37t-37-15-36 15-15 37l0 105-105 0q-21 0-36 15t-15 36 15 37 36 15l105 0 0 104q0 21 15 37t36 16 37-16 16-37l0-104 104 0z m245 245q16-16 16-36l0-521q0-65-46-111t-110-46l-522 0q-65 0-110 46t-46 111l0 625q0 65 46 110t110 46l417 0q22 0 37-15z m-110-36l-135 134 0-56q0-32 23-55t55-23l57 0z m-30-574q21 0 36 16t15 37l0 469-78 0q-53 0-92 38t-38 92l0 78-365 0q-21 0-37-15t-15-37l0-625q0-21 15-37t37-16l522 0z" horiz-adv-x="834" />
<glyph glyph-name="right" unicode="&#xe825;" d="m399 684q31 31 74 31t73-31l334-335-334-334q-30-30-73-30t-74 30q-31 31-31 74t31 74l82 82-377 0q-44 0-74 31t-30 73q0 44 31 74t73 31l377 0-82 82q-31 32-31 75t31 73z" horiz-adv-x="880" />
<glyph glyph-name="up" unicode="&#xe826;" d="m366 790l334-334q31-31 31-73t-31-74-74-31-73 31l-83 82 0-377q0-44-31-74t-73-30q-43 0-74 31t-31 73l0 377-82-82q-31-31-74-31t-74 31-31 74 31 73z" horiz-adv-x="731" />
<glyph glyph-name="down" unicode="&#xe827;" d="m700 391q31-31 31-73t-31-74l-334-334-335 334q-31 31-31 74t31 73 74 32 74-32l82-82 0 377q0 43 31 73t74 31q43 0 73-31t31-73l0-377 83 82q31 32 73 32t74-32z" horiz-adv-x="731" />
<glyph glyph-name="left" unicode="&#xe828;" d="m776 454q43 0 73-31t31-74q0-43-30-73t-74-31l-377 0 82-82q32-30 32-74t-32-74q-30-30-73-30t-74 30l-334 334 334 335q31 31 74 31t73-31q32-30 32-73t-32-75l-82-82 377 0z" horiz-adv-x="880" />
<glyph glyph-name="clipboard" unicode="&#xe829;" d="m678 819q65 0 110-46t46-110l0-625q0-65-46-111t-110-46l-522 0q-65 0-110 46t-46 111l0 625q0 65 46 110t110 46l522 0z m-418-104l0-52q0-21 16-37t37-16l208 0q22 0 37 16t15 37l0 52-313 0z m469-677l0 625q0 21-15 37t-36 15l-53 0 0-52q0-43-30-73t-74-31l-208 0q-43 0-74 31t-30 73l0 52-53 0q-21 0-37-15t-15-37l0-625q0-21 15-37t37-16l522 0q21 0 36 16t15 37z m-104 52l-416 0q-26 0-26 25 0 12 7 19t19 8l416 0q11 0 19-8t7-19q0-25-26-25z m0 157l-416 0q-11 0-19 7t-7 19q0 25 26 25l416 0q26 0 26-25 0-11-7-19t-19-7z m0 156l-416 0q-26 0-26 25 0 11 7 19t19 7l416 0q11 0 19-7t7-19q0-25-26-25z" horiz-adv-x="834" />
<glyph glyph-name="print" unicode="&#xe82a;" d="m866 564c40 0 75-35 75-78l0-366c0-42-35-77-75-77l-76 0 34-153-691 0 27 153-82 0c-45 0-78 35-78 77l0 366c0 43 33 78 78 78l96 0 0 117 34 0 0 129 527 0 0-129 34 0 0-117 97 0z m-623 199l0-292 457 0 0 292-457 0z m-113-389c30 0 55 24 55 54 0 28-25 53-55 53-29 0-54-25-54-53 0-30 25-54 54-54z m63-438l567 0-47 242-484 0z m252 113l-139 0 0 35 139 0 0-35z m198 0l-139 0 0 35 139 0 0-35z" horiz-adv-x="941" />
<glyph glyph-name="clock-alt" unicode="&#xe82b;" d="m406 757c224 0 407-182 407-407 0-223-183-406-407-406-225 0-406 183-406 406 0 225 181 407 406 407z m0-723c175 0 317 143 317 318s-142 316-317 316-317-141-317-316 142-318 317-318z m108 268l-115 0c-14 0-25 5-33 15l-131 143c-39 42 25 102 65 62l118-130 96 0c61 0 55-90 0-90z" horiz-adv-x="813" />
<glyph glyph-name="users" unicode="&#xe82c;" d="m0 49q20 7 60 22t69 26 50 22q37 19 57 56t21 76q0 27-31 64-19 21-33 60-45 18-45 76 0 43 14 61-5 39-9 82-5 55 26 108t84 84 110 32q43 0 85-19t73-50 48-72 14-83q-4-55-8-82 14-19 14-61 0-58-45-76-15-41-32-60-32-37-32-64 0-39 20-76t58-56q29-15 92-38t113-43 66-38q18-17 28-47t10-51l1-21h-878v168z m705 299q0 34 12 50-5 32-7 67-4 45 21 89t69 72 90 27 89-27 69-72 22-89q-2-35-8-67 12-16 12-50 0-48-36-62-12-33-27-50-9-10-13-16t-9-16-4-20q0-32 17-62t47-46q17-9 42-19t60-22 50-19v-135h-254q0 4 0 11t-3 26-7 36-15 38-23 33q-23 25-53 44t-79 37q27 34 27 78 0 10-5 20t-8 16-12 16q-14 15-27 49-37 16-37 63z" horiz-adv-x="1201.2" />
<glyph glyph-name="indent-left" unicode="&#xe82d;" d="m1000 732v-213h-669v213h669z m0-334v-213h-669v213h669z m0-335v-213h-669v213h669z m-761 335v-213l-150 106z" horiz-adv-x="1000" />
<glyph glyph-name="indent-right" unicode="&#xe82e;" d="m1000 732v-213h-669v213h669z m0-334v-213h-669v213h669z m0-335v-213h-669v213h669z m-911 335l150-107-150-106v213z" horiz-adv-x="1000" />
<glyph glyph-name="scissors" unicode="&#xe82f;" d="m1 81q4 42 31 82t73 69q74 47 155 47 46 0 84-18 5 8 13 13l68 40-68 41q-8 5-13 12-38-17-84-17-81 0-155 47-46 29-73 69t-31 82q-3 33 8 63t36 52q47 44 124 44 80 0 154-47 46-29 74-68t31-83q2-27-6-54 3-1 7-3l62-37 385 216q7 5 17 5 9 0 16-4l71-36q17-9 20-28 2-20-14-32l-283-222 283-222q16-11 14-31-3-20-20-29l-71-35q-7-4-16-4-10 0-17 4l-385 216-62-37q-4-2-7-2 8-28 6-55-4-43-31-82t-74-69q-74-47-154-47-76 0-124 44-51 47-44 115z m93 10q-14-37 12-60 21-20 63-20 55 0 107 33 45 28 59 65t-12 60q-22 20-63 20-56 0-107-33-45-28-59-65z m0 447q14-37 59-66 51-33 107-33 41 0 63 20 26 24 12 61t-59 65q-52 33-107 33-42 0-63-20-26-24-12-60z m281-295l5-5q1-1 4-3 2-2 6-7t6-6l15-15 89 54 54-18 410 321-71 36-429-240v-64z m0 143l54-33v7q0 20 18 31l8 4-44 26-15-14q-1-2-5-6t-7-7q-1-1-2-2t-2-1z m125-72q0 15 11 25t25 11 25-11 10-25-10-25-25-10-25 10-11 25z m68-103l325-182 71 35-290 228-99-77q-1-2-7-4z" horiz-adv-x="1000" />
<glyph glyph-name="paste" unicode="&#xe830;" d="m0 46v750q0 23 16 38t38 16h607q22 0 38-16t15-38v-183q12-7 20-15l228-228q16-16 27-42t11-50v-374q0-23-16-38t-38-16h-535q-23 0-38 16t-16 38v89h-303q-23 0-38 15t-16 38z m143 679q0-7 5-13t13-5h393q7 0 12 5t5 13v36q0 7-5 12t-12 5h-393q-7 0-13-5t-5-12v-36z m286-804h500v358h-233q-22 0-38 15t-15 38v232h-214v-643z m285 429h167l-167 167v-167z" horiz-adv-x="1000" />
<glyph glyph-name="star" unicode="&#xe831;" d="m0 489q0 21 31 26l280 40 126 254q11 23 27 23t28-23l125-254 280-40q32-5 32-26 0-12-15-27l-203-197 48-279q1-4 1-12 0-11-6-19t-17-9q-10 0-22 7l-251 132-250-132q-13-7-23-7-11 0-17 9t-6 19q0 4 1 12l48 279-203 197q-14 15-14 27z" horiz-adv-x="928.6" />
<glyph glyph-name="star-empty" unicode="&#xe832;" d="m0 489q0 21 31 26l280 40 126 254q11 23 27 23t28-23l125-254 280-40q32-5 32-26 0-12-15-27l-203-197 48-279q1-4 1-12 0-28-23-28-10 0-22 7l-251 132-250-132q-13-7-23-7-11 0-17 9t-6 19q0 4 1 12l48 279-203 197q-14 15-14 27z m123-34l171-165-41-235 211 111 211-111-41 235 171 165-235 35-106 213-105-213z" horiz-adv-x="928.6" />
<glyph glyph-name="hollow-circled-plus" unicode="&#xe833;" d="m429 564l142 0 0-143 143 0 0-142-143 0 0-143-142 0 0 143-143 0 0 142 143 0 0 143z m71 286c-276 0-500-224-500-500 0-276 224-500 500-500 276 0 500 224 500 500 0 276-224 500-500 500z m0-143c197 0 357-160 357-357 0-197-160-357-357-357-197 0-357 160-357 357 0 197 160 357 357 357z" horiz-adv-x="1000" />
<glyph glyph-name="left-dir" unicode="&#xe834;" d="m36 350q0 15 10 25l250 250q11 11 25 11t26-11 10-25v-500q0-14-10-25t-26-11-25 11l-250 250q-10 11-10 25z" horiz-adv-x="357.1" />
<glyph glyph-name="right-open" unicode="&#xe835;" d="m50 64q0 15 11 25l296 297-296 296q-11 11-11 25t11 25l92 93q11 10 26 10t25-10l414-414q10-11 10-25t-10-25l-414-414q-11-11-25-11t-26 11l-92 92q-11 11-11 25z" horiz-adv-x="714.3" />
<glyph glyph-name="left-open" unicode="&#xe836;" d="m86 386q0 14 11 25l414 414q10 10 25 10t25-10l92-93q11-10 11-25t-11-25l-296-296 296-297q11-10 11-25t-11-25l-92-93q-11-10-25-10t-25 10l-414 415q-11 10-11 25z" horiz-adv-x="714.3" />
<glyph glyph-name="down-open" unicode="&#xe837;" d="m50 425q0 14 11 25l92 92q11 11 26 11t25-11l296-296 296 296q11 11 25 11t26-11l92-92q11-11 11-25t-11-26l-414-413q-10-11-25-11t-25 11l-414 413q-11 11-11 26z" horiz-adv-x="1000" />
<glyph glyph-name="up-open" unicode="&#xe838;" d="m50 133q0 14 11 25l414 414q11 10 25 10t25-10l414-414q11-11 11-25t-11-26l-92-92q-11-10-26-10t-25 10l-296 297-296-297q-11-10-25-10t-26 10l-92 92q-11 11-11 26z" horiz-adv-x="1000" />
<glyph glyph-name="attention" unicode="&#xe839;" d="m9 27l429 786q9 17 26 27t36 10 36-10 27-27l428-786q20-35-1-70-10-17-26-26t-35-10h-858q-18 0-35 10t-26 26q-21 35-1 70z m411 519l9-255q0-5 6-9t13-3h103q8 0 13 3t6 9l10 257q0 6-5 10-7 6-14 6h-122q-7 0-14-6-5-4-5-12z m9-463q0-8 5-13t12-6h108q7 0 12 6t5 13v106q0 8-5 13t-12 5h-108q-7 0-12-5t-5-13v-106z" horiz-adv-x="1000" />
<glyph glyph-name="notes" unicode="&#xe83a;" d="m171 63h194l18 68h-212v-68z m246 194c2 8 6 16 11 23h-257v-68h234l12 45z m255 269v50h-501v-68h483l18 18z m80-575h-661v798h154c0-35 28-63 63-63h228c35 0 63 28 63 63h154v-143l37 37c15 15 34 25 54 29v77c0 50-41 91-91 91h-662c-50 0-91-41-91-91v-798c0-50 41-91 91-91h661c50 0 91 41 91 91v253l-91-91v-162z m-178 477h-403v-68h335l68 68z m408 83l-75 75c-21 21-50 29-70 9l-354-356-54-203 203 54 355 355c20 20 16 45-5 66z m-515-440l18 68 50-50-68-18z m398 402l-296-296-35 35 293 293c5 5 24-1 29-7 4-5 15-20 9-25z" horiz-adv-x="1000" />
<glyph glyph-name="exchange" unicode="&#xe83b;" d="m0 136q0 8 5 13l179 178q5 5 12 5 8 0 13-5t5-13v-107h768q7 0 13-5t5-13v-107q0-7-5-12t-13-6h-768v-107q0-7-5-12t-13-6q-6 0-13 6l-178 178q-5 5-5 13z m0 303v107q0 8 5 13t13 5h768v107q0 8 5 13t13 5q6 0 13-5l178-178q5-5 5-13t-5-13l-179-179q-5-5-12-5-8 0-13 6t-5 12v107h-768q-7 0-13 6t-5 12z" horiz-adv-x="1000" />
<glyph glyph-name="summary" unicode="&#xe83c;" d="m118 708c0-33-26-59-58-59s-60 26-60 59 27 59 59 59 59-27 59-59z m237-710c0-33-27-58-59-58s-59 25-59 58c0 33 26 59 58 59s60-27 60-59z m0 474c0-34-27-59-59-59s-59 25-59 59 26 58 58 58 60-26 60-58z m236-237c0-33-26-59-58-59-32 0-60 26-60 59s27 59 59 59c32 0 59-27 59-59z m-354 532h709v-119h-709v119z m236-237h473v-118h-473v118z m0-473h473v-118h-473v118z m237 237h236v-119h-236v119z" horiz-adv-x="948" />
<glyph glyph-name="trash" unicode="&#xe83d;" d="m50 458q122-70 330-70t330 70l-54-486q-2-14-35-36t-100-43-141-21-140 21-100 43-36 36z m488 300q94-18 158-55t64-71l0-10q0-58-112-99t-268-41-268 41-112 99l0 10q0 34 64 71t158 55l42 48q22 26 70 26l92 0q52 0 70-26z m-54-112l84 0q-92 110-104 126-14 16-32 16l-102 0q-22 0-32-16l-106-126 84 0 64 66 82 0z" horiz-adv-x="760" />
</font>
</defs>
</svg>