{
    "kuali.cr.cart.message.course.code.and.section.required": "Course code and section required",
    "kuali.cr.cart.message.section.required": "Section required",
    "kuali.cr.cart.message.course.code.required": "Course code required",
    "kuali.cr.cart.message.cart.does.not.exist": "Unable to load cart for {{termName}}",
    "kuali.cr.cart.message.course.does.not.exist": "Cannot find the course {{courseCode}} in the selected term",
    "kuali.cr.cart.message.credits.invalid": "Credit option {{option}} is not valid for this course {{courseCode}} ({{regGroupCode}})",
    "kuali.cr.cart.message.grading.invalid": "Grading option {{option}} is not valid for this course {{courseCode}} ({{regGroupCode}})",
    "kuali.cr.cart.message.reg.group.not.offered": "{{courseCode}} ({{regGroupCode}}) is {{state | humanizeRegGroupState}}",

    "kuali.lpr.trans.message.registration.term.not.open": "Registration is not currently open",
    "kuali.lpr.trans.message.credit.load.exceeded": "Exceeded maximum credit limit <strong ng-if='maxCredits'>({{maxCredits}} credits)</strong>",
    "kuali.lpr.trans.message.credit.load.reached": "Reached maximum credit limit <span ng-if='maxCredits'>(<strong>{{maxCredits}} credits</strong>)</span>",
    "kuali.lpr.trans.message.time.conflict": "Time conflict",
    "kuali.lpr.trans.message.reggroup.notoffered": "{{courseCode}} ({{regGroupCode}}) is {{state | humanizeRegGroupState}} for {{termName}}",
    "kuali.lpr.trans.message.waitlist.available": "No seats available.",
    "kuali.lpr.trans.message.waitlist.full": "No seats available.<br/>(Waitlist full)",
    "kuali.lpr.trans.message.waitlist.not.offered": "No seats available.<br/>(Waitlist not offered)",
    "kuali.lpr.trans.message.exception": "There was an internal server error while processing your registration request.",
    "kuali.lpr.trans.message.course.not.open": "<span ng-if='details.appointmentSlot'>Registration Appointment is {{details.appointmentSlot}}</span><span ng-if='details.noAppointment'>No Registration Appointment Scheduled</span><span ng-if='details.startDate'>First day of Registration is not until {{details.startDate}}</span><span ng-if='details.endDate'>Last day of Registration was {{details.endDate}}</span>",
    "kuali.lpr.trans.message.drop.period.closed": "Last day to drop was {{endDate}}",
    "kuali.lpr.trans.message.edit.period.closed": "Last day to modify was {{endDate}}",
    "kuali.lpr.trans.message.course.grade.incomplete": "{{cluCode}} has already been taken. Cannot repeat a course with a mark of 'I'.",
    "kuali.lpr.trans.message.course.already.registered": "You are already registered for {{courseCode}}.",
    "kuali.lpr.trans.message.course.already.taken": "{{cluCode}} has already been taken {{attempts | multiplicativeAdverb : ' times'}}. This course cannot be repeated more than {{maxRepeats - 1 | multiplicativeAdverb : ' times'}}.",
    "kuali.lpr.trans.message.repeatability.warning": "This will be your {{attempts + 1 | ordinal}} attempt of {{cluCode}}. This course cannot be attempted more than {{maxRepeats | multiplicativeAdverb : ' times'}}.",
    "kuali.lpr.trans.message.failed.holds.mandatory.advising": "Mandatory Advising: academically ineligible for {{termName}}",
    "kuali.lpr.trans.message.failed.holds.transactions.limit": "Too many registration transactions for {{termName}}",
    "kuali.lpr.trans.item.message.exception": "There was an internal server error while processing this item.",

    "kuali.cr.learningplan.message.learningplan.course.not.active": "{{state}}",
    "kuali.cr.learningplan.message.learningplan.course.not.offered": "<span ng-if='state === states.dto.active'>Not offered</span><span ng-if='state !== states.dto.active'>{{state}}</span>",
    "kuali.cr.learningplan.message.learningplan.reggroup.not.offered": "Section {{regGroupCode}} {{state | humanizeRegGroupState}}"
}